fffffffff        ffffffffff                      f
ffffffff            fffffff                       
ffffffff               ff                         
fffffffff                                         
fffffffff                                         
fffffffffffff                                     
ffffffffffffffffff                                
ffffffffffffffffff                                
ffffffffffffffff                                  
ffffffffffff                                      
ffffff                                            
                                                  
                                                  
                                                  
                                                 f
                                                 f
                                                  
ff                         ffff                   
fff                       fffffffff               
fff                       ffffffffff              
                          ffffffffff              
                           ffffffff               
                            ffff                  
     fffff                                        
ffffffffffffff                                   f
