f                            ffffffffffffffffff  f
                            ffffffffffffffffffffff
                          ffffffffffffffffffffff  
                         ffffffffffffffffffffff   
                         fffffffffffffffffffffff  
                         ffffffffffffffffffffffff 
                         fffffffffffffffffffffffff
                         fffffffffffffffffffffffff
                         fffffffffffffffffffffffff
                         fffffffffffffffffffffffff
                       fffffffffffffffffffffffffff
           fffffffffffffffffffffffffffffffffffffff
          ffffffffffffffffffffffffffffffffffffffff
          ffffffffffffffffffffffffffffffffffffffff
             fffffffffffffffffffffffffffffffffff  
               ffffffff   ffffffffffffffffffff    
              fffffffff     fffffffffffffffff     
             ffffffffff      fffffffffffffff      
            fffffffffffff   ffffffffffffffff      
           ffffffffffffffffffffffffffffffffff     
           ffffffffffffffffffffffffffffffffffff   
          ffffffffffffffffffffffffffffffffffffff  
         ffffffffffffffffffffffffffffffffffffffff 
         fffffffffffffffffffffffffffffffffffffffff
f        fffffffffffffffffffffffffffffffffffffffff
